INDEX VERSION 1.126+C:\ADG\Java\Apps\Games\LuxEmita\LuxEmita\.metadata\.plugins\org.eclipse.jdt.core
4041092966.index
4173023868.index
1818563445.index
985916474.index
1115467115.index
305854171.index
30765161.index
3874482217.index
3065916431.index
4155206848.index
1697886153.index
1498219845.index
573543369.index
1995173708.index
3974580528.index
4108727661.index
3255408743.index
163172794.index
3133528496.index
3750011584.index
